{
  "stats": {
    "suites": 1,
    "tests": 3,
    "passes": 2,
    "pending": 1,
    "failures": 0,
    "start": "2022-02-13T06:41:15.837Z",
    "end": "2022-02-13T06:41:25.857Z",
    "duration": 10020,
    "testsRegistered": 3,
    "passPercent": 100,
    "pendingPercent": 33.33333333333333,
    "other": 0,
    "hasOther": false,
    "skipped": 0,
    "hasSkipped": false
  },
  "results": [
    {
      "uuid": "e40ebdaf-7243-4718-bb57-796e2da36ce2",
      "title": "",
      "fullFile": "cypress/integration/login.spec.js",
      "file": "cypress/integration/login.spec.js",
      "beforeHooks": [],
      "afterHooks": [],
      "tests": [],
      "suites": [
        {
          "uuid": "14d8e619-782c-46ab-993f-deacefda611b",
          "title": "Login Page Tests",
          "fullFile": "",
          "file": "",
          "beforeHooks": [],
          "afterHooks": [],
          "tests": [
            {
              "title": "Login page is formatted properly",
              "fullTitle": "Login Page Tests Login page is formatted properly",
              "timedOut": null,
              "duration": 1899,
              "state": "passed",
              "speed": "fast",
              "pass": true,
              "fail": false,
              "pending": false,
              "context": null,
              "code": "login.getIqueueTitle.should('have.text', ' Welcome to iQueue!  Enter your password.  Part of   Where should we email password reset instructions? ');",
              "err": {},
              "uuid": "cc263726-0bf9-4ffb-98a2-f01de3046f26",
              "parentUUID": "14d8e619-782c-46ab-993f-deacefda611b",
              "isHook": false,
              "skipped": false
            },
            {
              "title": "Login with valid admin credentials",
              "fullTitle": "Login Page Tests Login with valid admin credentials",
              "timedOut": null,
              "duration": 4384,
              "state": "passed",
              "speed": "fast",
              "pass": true,
              "fail": false,
              "pending": false,
              "context": null,
              "code": "login.enterEmail(data.admin.username);\nlogin.submitEmail();\nlogin.enterPassword(data.admin.password);\nlogin.submitPassword();\ncy.url().should('include', '/dashboard/or-statistics/v2');\ncy.get('.side-nav .ng-star-inserted').should('have.length', 23);\ncy.get('.tiles-container .tile').should('have.length', 14);",
              "err": {},
              "uuid": "c6413236-e75d-469c-9a9b-8dc18c476097",
              "parentUUID": "14d8e619-782c-46ab-993f-deacefda611b",
              "isHook": false,
              "skipped": false
            },
            {
              "title": "Login with valid surgeon credentials",
              "fullTitle": "Login Page Tests Login with valid surgeon credentials",
              "timedOut": null,
              "duration": 0,
              "state": "pending",
              "speed": null,
              "pass": false,
              "fail": false,
              "pending": true,
              "context": null,
              "code": "",
              "err": {},
              "uuid": "10d8cd94-3735-44df-b8bb-8f528a7882da",
              "parentUUID": "14d8e619-782c-46ab-993f-deacefda611b",
              "isHook": false,
              "skipped": false
            }
          ],
          "suites": [],
          "passes": [
            "cc263726-0bf9-4ffb-98a2-f01de3046f26",
            "c6413236-e75d-469c-9a9b-8dc18c476097"
          ],
          "failures": [],
          "pending": [
            "10d8cd94-3735-44df-b8bb-8f528a7882da"
          ],
          "skipped": [],
          "duration": 6283,
          "root": false,
          "rootEmpty": false,
          "_timeout": 2000
        }
      ],
      "passes": [],
      "failures": [],
      "pending": [],
      "skipped": [],
      "duration": 0,
      "root": true,
      "rootEmpty": true,
      "_timeout": 2000
    }
  ],
  "meta": {
    "mocha": {
      "version": "7.0.1"
    },
    "mochawesome": {
      "options": {
        "quiet": false,
        "reportFilename": "mochawesome",
        "saveHtml": false,
        "saveJson": true,
        "consoleReporter": "spec",
        "useInlineDiffs": false,
        "code": true
      },
      "version": "7.0.1"
    },
    "marge": {
      "options": {
        "id": "default",
        "reportDir": "cypress/reports/mocha",
        "quite": true,
        "overwrite": false,
        "html": false,
        "json": true
      },
      "version": "6.0.1"
    }
  }
}